IR ID,First Name,Last Name,Email Address,Country,CASH,AR,Reference,Amount Paid,Group Name
SG004136,Sunil Gautam,,skg7005@outlook.com,SINGAPORE,400,50,,450,INFINITY
IN500511,Sowmya J,,soumya.j9@gmail.com,INDIA,,450,,450,INFINITY
IN496798,Anand Keshav,,anandubw@gmail.com,INDIA,450,,,450,INFINITY
IN202605,Arvind Jajodia,,arvindjajodia21@gmail.com,INDIA,450,,,450,INFINITY
IN478727,Charles Winston David Sukoori,,charleswns@gmail.com,INDIA,450,,,450,INFINITY
